2015-03-15 11:40:49,783 INFO  tosort.Problem - 1370000 ms, n=342 : Merge sort
2015-03-15 11:40:49,785 DEBUG sort.IntroSort - running time: 25005000  	Problem: lenore.utils.sort.MergeSort 
2015-03-15 11:40:49,803 INFO  tosort.Problem - 6414000 ms, n=342 : Insertion sort
2015-03-15 11:40:49,803 DEBUG sort.IntroSort - running time: 17817000  	Problem: lenore.utils.sort.InsertionSort 
2015-03-15 11:40:49,811 INFO  tosort.Problem - 1721000 ms, n=342 : Quick sort
2015-03-15 11:40:49,812 DEBUG sort.IntroSort - running time: 8375000  	Problem: lenore.utils.sort.QuickSort 
2015-03-15 11:40:49,835 INFO  tosort.Problem - 14674000 ms, n=342 : Bubble sort
2015-03-15 11:40:49,835 DEBUG sort.IntroSort - running time: 22787000  	Problem: lenore.utils.sort.BubbleSort 
2015-03-15 11:40:49,844 INFO  tosort.Problem - 1613000 ms, n=342 : Merge with Insertion sort, k=100
2015-03-15 11:40:49,845 DEBUG sort.IntroSort - running time: 9257000  	Problem: lenore.utils.sort.MergeInsertionSort 
2015-03-15 11:41:02,624 INFO  tosort.Problem - 1184000 ms, n=342 : Merge sort
2015-03-15 11:41:02,626 DEBUG sort.IntroSort - running time: 26803000  	Problem: lenore.utils.sort.MergeSort 
2015-03-15 11:41:02,644 INFO  tosort.Problem - 5913000 ms, n=342 : Insertion sort
2015-03-15 11:41:02,645 DEBUG sort.IntroSort - running time: 18181000  	Problem: lenore.utils.sort.InsertionSort 
2015-03-15 11:41:02,652 INFO  tosort.Problem - 1535000 ms, n=342 : Quick sort
2015-03-15 11:41:02,653 DEBUG sort.IntroSort - running time: 7480000  	Problem: lenore.utils.sort.QuickSort 
2015-03-15 11:41:02,674 INFO  tosort.Problem - 15193000 ms, n=342 : Bubble sort
2015-03-15 11:41:02,674 DEBUG sort.IntroSort - running time: 21183000  	Problem: lenore.utils.sort.BubbleSort 
2015-03-15 11:41:02,683 INFO  tosort.Problem - 1727000 ms, n=342 : Merge with Insertion sort, k=100
2015-03-15 11:41:02,684 DEBUG sort.IntroSort - running time: 8675000  	Problem: lenore.utils.sort.MergeInsertionSort 
2015-03-15 11:42:09,649 [INFO ] sort.MergeSort - 1177000 ms, n=342 : Merge sort
2015-03-15 11:42:09,650 [DEBUG] utils.ProblemRunner - running time: 23471000  	Problem: lenore.utils.sort.MergeSort 
2015-03-15 11:42:09,667 [INFO ] sort.InsertionSort - 5051000 ms, n=342 : Insertion sort
2015-03-15 11:42:09,667 [DEBUG] utils.ProblemRunner - running time: 16608000  	Problem: lenore.utils.sort.InsertionSort 
2015-03-15 11:42:09,675 [INFO ] sort.QuickSort - 1573000 ms, n=342 : Quick sort
2015-03-15 11:42:09,675 [DEBUG] utils.ProblemRunner - running time: 7397000  	Problem: lenore.utils.sort.QuickSort 
2015-03-15 11:42:09,693 [INFO ] sort.BubbleSort - 11781000 ms, n=342 : Bubble sort
2015-03-15 11:42:09,693 [DEBUG] utils.ProblemRunner - running time: 17753000  	Problem: lenore.utils.sort.BubbleSort 
2015-03-15 11:42:09,699 [INFO ] sort.MergeInsertionSort - 1115000 ms, n=342 : Merge with Insertion sort, k=100
2015-03-15 11:42:09,700 [DEBUG] utils.ProblemRunner - running time: 5979000  	Problem: lenore.utils.sort.MergeInsertionSort 
